{
  "project_info": {
    "project_number": "511433166508",
    "project_id": "cheetah-2021",
    "storage_bucket": "cheetah-2021.appspot.com"
  },
  "client": [
    {
      "client_info": {
        "mobilesdk_app_id": "1:511433166508:android:015f5e6fa5ca33e1295909",
        "android_client_info": {
          "package_name": "com.loopin"
        }
      },
      "oauth_client": [
        {
          "client_id": "511433166508-t0lek5kprvg0hitoebpbcuo9l5up392d.apps.googleusercontent.com",
          "client_type": 1,
          "android_info": {
            "package_name": "com.loopin",
            "certificate_hash": "344721c112725f2a43f50c2b8ea8eac10e88300a"
          }
        },
        {
          "client_id": "511433166508-021mv0ftt5vpuq48f8jts5d14qt97ns5.apps.googleusercontent.com",
          "client_type": 3
        }
      ],
      "api_key": [
        {
          "current_key": "AIzaSyBqBptxXhPX6P2WIuu7nLzwZnJ6XwW01vI"
        }
      ],
      "services": {
        "appinvite_service": {
          "other_platform_oauth_client": [
            {
              "client_id": "511433166508-021mv0ftt5vpuq48f8jts5d14qt97ns5.apps.googleusercontent.com",
              "client_type": 3
            },
            {
              "client_id": "511433166508-6jjs5dsje0v9sq42ffhtqr6krp6l0s78.apps.googleusercontent.com",
              "client_type": 2,
              "ios_info": {
                "bundle_id": "com.cheetah"
              }
            }
          ]
        }
      }
    }
  ],
  "configuration_version": "1"
}